%YAML 1.1
%TAG !u! tag:unity3d.com,2011:
--- !u!1 &5273371217873559224
GameObject:
  m_ObjectHideFlags: 0
  m_CorrespondingSourceObject: {fileID: 0}
  m_PrefabInstance: {fileID: 0}
  m_PrefabAsset: {fileID: 0}
  serializedVersion: 6
  m_Component:
  - component: {fileID: 4784256028288943106}
  - component: {fileID: 8487820847940111271}
  - component: {fileID: 5921735838520115053}
  m_Layer: 0
  m_Name: iPad
  m_TagString: Untagged
  m_Icon: {fileID: 0}
  m_NavMeshLayer: 0
  m_StaticEditorFlags: 0
  m_IsActive: 1
--- !u!4 &4784256028288943106
Transform:
  m_ObjectHideFlags: 0
  m_CorrespondingSourceObject: {fileID: 0}
  m_PrefabInstance: {fileID: 0}
  m_PrefabAsset: {fileID: 0}
  m_GameObject: {fileID: 5273371217873559224}
  m_LocalRotation: {x: -0.7071068, y: 0, z: 0, w: 0.7071068}
  m_LocalPosition: {x: -3.9604702, y: 164.18018, z: 14.110061}
  m_LocalScale: {x: 3, y: 3, z: 3}
  m_Children:
  - {fileID: 7932684549568309279}
  m_Father: {fileID: 0}
  m_RootOrder: 0
  m_LocalEulerAnglesHint: {x: -90, y: 0, z: 0}
--- !u!33 &8487820847940111271
MeshFilter:
  m_ObjectHideFlags: 0
  m_CorrespondingSourceObject: {fileID: 0}
  m_PrefabInstance: {fileID: 0}
  m_PrefabAsset: {fileID: 0}
  m_GameObject: {fileID: 5273371217873559224}
  m_Mesh: {fileID: -1550514412580984892, guid: 996c59f9cce3c924396ff53399f5b5a2, type: 3}
--- !u!23 &5921735838520115053
MeshRenderer:
  m_ObjectHideFlags: 0
  m_CorrespondingSourceObject: {fileID: 0}
  m_PrefabInstance: {fileID: 0}
  m_PrefabAsset: {fileID: 0}
  m_GameObject: {fileID: 5273371217873559224}
  m_Enabled: 1
  m_CastShadows: 1
  m_ReceiveShadows: 1
  m_DynamicOccludee: 1
  m_MotionVectors: 1
  m_LightProbeUsage: 1
  m_ReflectionProbeUsage: 1
  m_RayTracingMode: 2
  m_RayTraceProcedural: 0
  m_RenderingLayerMask: 1
  m_RendererPriority: 0
  m_Materials:
  - {fileID: 2100000, guid: 16d45007a3facd848a08b8838852e6e7, type: 2}
  m_StaticBatchInfo:
    firstSubMesh: 0
    subMeshCount: 0
  m_StaticBatchRoot: {fileID: 0}
  m_ProbeAnchor: {fileID: 0}
  m_LightProbeVolumeOverride: {fileID: 0}
  m_ScaleInLightmap: 1
  m_ReceiveGI: 1
  m_PreserveUVs: 0
  m_IgnoreNormalsForChartDetection: 0
  m_ImportantGI: 0
  m_StitchLightmapSeams: 1
  m_SelectedEditorRenderState: 3
  m_MinimumChartSize: 4
  m_AutoUVMaxDistance: 0.5
  m_AutoUVMaxAngle: 89
  m_LightmapParameters: {fileID: 0}
  m_SortingLayerID: 0
  m_SortingLayer: 0
  m_SortingOrder: 0
  m_AdditionalVertexStreams: {fileID: 0}
--- !u!1001 &5395909568553202005
PrefabInstance:
  m_ObjectHideFlags: 0
  serializedVersion: 2
  m_Modification:
    m_TransformParent: {fileID: 4784256028288943106}
    m_Modifications:
    - target: {fileID: 2662913500115855244, guid: d2b66abe3816f1048b710d7485f00325, type: 3}
      propertyPath: m_IsActive
      value: 0
      objectReference: {fileID: 0}
    - target: {fileID: 2662913500845775178, guid: d2b66abe3816f1048b710d7485f00325, type: 3}
      propertyPath: m_RootOrder
      value: 0
      objectReference: {fileID: 0}
    - target: {fileID: 2662913500845775178, guid: d2b66abe3816f1048b710d7485f00325, type: 3}
      propertyPath: m_LocalPosition.x
      value: 0
      objectReference: {fileID: 0}
    - target: {fileID: 2662913500845775178, guid: d2b66abe3816f1048b710d7485f00325, type: 3}
      propertyPath: m_LocalPosition.y
      value: 0
      objectReference: {fileID: 0}
    - target: {fileID: 2662913500845775178, guid: d2b66abe3816f1048b710d7485f00325, type: 3}
      propertyPath: m_LocalPosition.z
      value: 0
      objectReference: {fileID: 0}
    - target: {fileID: 2662913500845775178, guid: d2b66abe3816f1048b710d7485f00325, type: 3}
      propertyPath: m_LocalRotation.w
      value: 0.7071068
      objectReference: {fileID: 0}
    - target: {fileID: 2662913500845775178, guid: d2b66abe3816f1048b710d7485f00325, type: 3}
      propertyPath: m_LocalRotation.x
      value: -0
      objectReference: {fileID: 0}
    - target: {fileID: 2662913500845775178, guid: d2b66abe3816f1048b710d7485f00325, type: 3}
      propertyPath: m_LocalRotation.y
      value: -0.7071068
      objectReference: {fileID: 0}
    - target: {fileID: 2662913500845775178, guid: d2b66abe3816f1048b710d7485f00325, type: 3}
      propertyPath: m_LocalRotation.z
      value: -0
      objectReference: {fileID: 0}
    - target: {fileID: 2662913500845775178, guid: d2b66abe3816f1048b710d7485f00325, type: 3}
      propertyPath: m_LocalEulerAnglesHint.x
      value: 0
      objectReference: {fileID: 0}
    - target: {fileID: 2662913500845775178, guid: d2b66abe3816f1048b710d7485f00325, type: 3}
      propertyPath: m_LocalEulerAnglesHint.y
      value: 0
      objectReference: {fileID: 0}
    - target: {fileID: 2662913500845775178, guid: d2b66abe3816f1048b710d7485f00325, type: 3}
      propertyPath: m_LocalEulerAnglesHint.z
      value: 0
      objectReference: {fileID: 0}
    - target: {fileID: 2662913500845775179, guid: d2b66abe3816f1048b710d7485f00325, type: 3}
      propertyPath: m_Name
      value: ZoomSection
      objectReference: {fileID: 0}
    m_RemovedComponents: []
  m_SourcePrefab: {fileID: 100100000, guid: d2b66abe3816f1048b710d7485f00325, type: 3}
--- !u!4 &7932684549568309279 stripped
Transform:
  m_CorrespondingSourceObject: {fileID: 2662913500845775178, guid: d2b66abe3816f1048b710d7485f00325, type: 3}
  m_PrefabInstance: {fileID: 5395909568553202005}
  m_PrefabAsset: {fileID: 0}
